﻿  Compiling CUDA source file kernel.cu...
  
  C:\Users\boris\source\repos\CUDA\CUDA>"C:\Program Files\NVIDIA GPU Computing Toolkit\CUDA\v11.0\bin\nvcc.exe" -gencode=arch=compute_52,code=\"sm_52,compute_52\" --use-local-env -ccbin "C:\Program Files (x86)\Microsoft Visual Studio\2017\Professional\VC\Tools\MSVC\14.15.26726\bin\HostX86\x64" -x cu   -I"C:\Program Files\NVIDIA GPU Computing Toolkit\CUDA\v11.0\include" -I"C:\Program Files\NVIDIA GPU Computing Toolkit\CUDA\v11.0\include"  -G   --keep-dir x64\Debug -maxrregcount=0  --machine 64 --compile -cudart static  -g   -DWIN32 -DWIN64 -D_DEBUG -D_CONSOLE -D_MBCS -Xcompiler "/EHsc /W3 /nologo /Od /Fdx64\Debug\vc141.pdb /FS /Zi /RTC1 /MDd " -o x64\Debug\kernel.cu.obj "C:\Users\boris\source\repos\CUDA\CUDA\kernel.cu" 
  kernel.cu
C:/Users/boris/source/repos/CUDA/CUDA/kernel.cu(30): warning C4477: "printf": в строке форматирования "%d" требуется аргумент типа "int", но вариативный аргумент "1" имеет тип "size_t"
  C:/Users/boris/source/repos/CUDA/CUDA/kernel.cu(30): note: рекомендуется использовать "%zd" в строке форматирования
C:/Users/boris/source/repos/CUDA/CUDA/kernel.cu(33): warning C4477: "printf": в строке форматирования "%d" требуется аргумент типа "int", но вариативный аргумент "1" имеет тип "size_t"
  C:/Users/boris/source/repos/CUDA/CUDA/kernel.cu(33): note: рекомендуется использовать "%zd" в строке форматирования
C:/Users/boris/source/repos/CUDA/CUDA/kernel.cu(39): warning C4477: "printf": в строке форматирования "%d" требуется аргумент типа "int", но вариативный аргумент "1" имеет тип "size_t"
  C:/Users/boris/source/repos/CUDA/CUDA/kernel.cu(39): note: рекомендуется использовать "%zd" в строке форматирования
C:/Users/boris/source/repos/CUDA/CUDA/kernel.cu(42): warning C4477: "printf": в строке форматирования "%d" требуется аргумент типа "int", но вариативный аргумент "1" имеет тип "size_t"
  C:/Users/boris/source/repos/CUDA/CUDA/kernel.cu(42): note: рекомендуется использовать "%zd" в строке форматирования
  CUDA.vcxproj -> C:\Users\boris\source\repos\CUDA\x64\Debug\CUDA.exe
